[
    {
        "id": 1,
        "name": "ALTERNATE aTTaX",
        "logo": "https://cdn.eslgaming.com/play/eslgfx/gfx/logos/teams/12931000/12931884_medium.jpg",
        "division": "Elite",
        "created_at": "2019-02-12T21:59:13.337Z",
        "updated_at": "2019-02-12T21:59:13.337Z"
    },
    {
        "id": 2,
        "name": "Exitium",
        "logo": "https://cdn.eslgaming.com/play/eslgfx/gfx/logos/teams/12866000/12866283_medium.jpg",
        "division": "Elite",
        "created_at": "2019-02-12T21:59:24.777Z",
        "updated_at": "2019-02-12T21:59:24.777Z"
    },
    {
        "id": 3,
        "name": "Kyodai eSports",
        "logo": "https://cdn.eslgaming.com/play/eslgfx/gfx/logos/teams/13269000/13269113_medium.jpg",
        "division": "Elite",
        "created_at": "2019-02-12T21:59:37.552Z",
        "updated_at": "2019-02-12T21:59:37.552Z"
    },
    {
        "id": 4,
        "name": "MOONWOLF",
        "logo": "https://cdn.eslgaming.com/play/eslgfx/gfx/logos/teams/12867000/12867128_medium.jpg",
        "division": "Elite",
        "created_at": "2019-02-12T21:59:55.405Z",
        "updated_at": "2019-02-12T21:59:55.405Z"
    },
    {
        "id": 5,
        "name": "GamerLegion",
        "logo": "https://cdn.eslgaming.com/play/eslgfx/gfx/logos/teams/13270000/13270207_medium.jpg",
        "division": "Elite",
        "created_at": "2019-02-12T22:00:07.739Z",
        "updated_at": "2019-02-12T22:00:07.739Z"
    },
    {
        "id": 6,
        "name": "VIKINGZ",
        "logo": "https://cdn.eslgaming.com/play/eslgfx/gfx/logos/teams/13267000/13267068_medium.jpg",
        "division": "Elite",
        "created_at": "2019-02-12T22:00:22.462Z",
        "updated_at": "2019-02-12T22:00:22.462Z"
    },
    {
        "id": 7,
        "name": "Grim Ravens",
        "logo": "https://cdn.eslgaming.com/play/eslgfx/gfx/logos/teams/13272000/13272844_medium.jpg",
        "division": "Elite",
        "created_at": "2019-02-12T22:00:43.624Z",
        "updated_at": "2019-02-12T22:00:43.624Z"
    },
    {
        "id": 8,
        "name": "Back to Lobby",
        "logo": "https://cdn.eslgaming.com/play/eslgfx/gfx/logos/teams/13273000/13273995_medium.jpg",
        "division": "Elite",
        "created_at": "2019-02-12T22:01:01.344Z",
        "updated_at": "2019-02-12T22:01:01.344Z"
    },
    {
        "id": 9,
        "name": "Infected",
        "logo": "https://cdn.eslgaming.com/play/eslgfx/gfx/logos/teams/13275000/13275908_medium.jpg",
        "division": "Elite",
        "created_at": "2019-02-12T22:01:19.040Z",
        "updated_at": "2019-02-12T22:01:19.040Z"
    },
    {
        "id": 10,
        "name": "Planetkey Dynamics",
        "logo": "https://cdn.eslgaming.com/play/eslgfx/gfx/logos/teams/12448000/12448699_medium.jpg",
        "division": "Elite",
        "created_at": "2019-02-12T22:01:44.905Z",
        "updated_at": "2019-02-12T22:01:44.905Z"
    },
    {
        "id": 11,
        "name": "unum iaculat eSports",
        "logo": "https://cdn.eslgaming.com/play/eslgfx/gfx/logos/teams/12858000/12858661_medium.jpg",
        "division": "Elite",
        "created_at": "2019-02-12T22:02:04.096Z",
        "updated_at": "2019-02-12T22:02:04.096Z"
    },
    {
        "id": 12,
        "name": "Team BANHAMMER",
        "logo": "https://cdn.eslgaming.com/play/eslgfx/gfx/logos/teams/12851000/12851655_medium.jpg",
        "division": "Elite",
        "created_at": "2019-02-12T22:02:18.850Z",
        "updated_at": "2019-02-12T22:02:18.850Z"
    },
    {
        "id": 13,
        "name": "CPLAY",
        "logo": "https://cdn.eslgaming.com/play/eslgfx/gfx/logos/teams/12561000/12561948_medium.jpg",
        "division": "Elite",
        "created_at": "2019-02-12T22:02:35.791Z",
        "updated_at": "2019-02-12T22:02:35.791Z"
    },
    {
        "id": 14,
        "name": "Lake Rabbits",
        "logo": "https://cdn.eslgaming.com/play/eslgfx/gfx/logos/teams/12228000/12228453_medium.jpg",
        "division": "Elite",
        "created_at": "2019-02-12T22:02:51.810Z",
        "updated_at": "2019-02-12T22:02:51.810Z"
    },
    {
        "id": 15,
        "name": "Team Leviathan",
        "logo": "https://cdn.eslgaming.com/play/eslgfx/gfx/logos/teams/13259000/13259496_medium.jpg",
        "division": "Elite",
        "created_at": "2019-02-12T22:03:08.447Z",
        "updated_at": "2019-02-12T22:03:08.447Z"
    },
    {
        "id": 16,
        "name": "Aequilibritas eSports",
        "logo": "https://cdn.eslgaming.com/play/eslgfx/gfx/logos/teams/11607000/11607069_medium.jpg",
        "division": "Elite",
        "created_at": "2019-02-12T22:03:28.303Z",
        "updated_at": "2019-02-12T22:03:28.303Z"
    },
    {
        "id": 17,
        "name": "Insane Raccoons",
        "logo": "https://cdn.eslgaming.com/play/eslgfx/gfx/logos/teams/13269000/13269440_medium.jpg",
        "division": "Diamond",
        "created_at": "2019-02-12T22:10:19.589Z",
        "updated_at": "2019-02-12T22:10:19.589Z"
    },
    {
        "id": 18,
        "name": "Final Gaming",
        "logo": "https://cdn.eslgaming.com/play/eslgfx/gfx/logos/teams/13270000/13270267_medium.jpg",
        "division": "Diamond",
        "created_at": "2019-02-12T22:10:29.626Z",
        "updated_at": "2019-02-12T22:10:35.920Z"
    },
    {
        "id": 19,
        "name": "Next1 Esports",
        "logo": "https://cdn.eslgaming.com/play/eslgfx/gfx/logos/teams/13112000/13112332_medium.jpg",
        "division": "Diamond",
        "created_at": "2019-02-12T22:10:53.930Z",
        "updated_at": "2019-02-12T22:10:53.930Z"
    },
    {
        "id": 20,
        "name": "TKA E-Sports",
        "logo": "https://cdn.eslgaming.com/play/eslgfx/gfx/logos/teams/13268000/13268734_medium.jpg",
        "division": "Diamond",
        "created_at": "2019-02-12T22:11:10.834Z",
        "updated_at": "2019-02-12T22:11:10.834Z"
    },
    {
        "id": 21,
        "name": "Entropy Gaming",
        "logo": "https://cdn.eslgaming.com/play/eslgfx/gfx/logos/teams/11834000/11834660_medium.jpg",
        "division": "Diamond",
        "created_at": "2019-02-12T22:11:27.706Z",
        "updated_at": "2019-02-12T22:11:27.706Z"
    },
    {
        "id": 22,
        "name": "Infamous Wolves",
        "logo": "https://cdn.eslgaming.com/play/eslgfx/gfx/logos/teams/13275000/13275244_medium.jpg",
        "division": "Diamond",
        "created_at": "2019-02-12T22:11:47.442Z",
        "updated_at": "2019-02-12T22:11:47.442Z"
    },
    {
        "id": 23,
        "name": "Basically Boosted",
        "logo": "https://cdn.eslgaming.com/play/eslgfx/gfx/logos/teams/13272000/13272118_medium.jpg",
        "division": "Diamond",
        "created_at": "2019-02-12T22:12:02.073Z",
        "updated_at": "2019-02-12T22:12:02.073Z"
    },
    {
        "id": 24,
        "name": "iScream",
        "logo": "https://cdn.eslgaming.com/play/eslgfx/gfx/logos/teams/13252000/13252939_medium.jpg",
        "division": "Diamond",
        "created_at": "2019-02-12T22:12:27.685Z",
        "updated_at": "2019-02-12T22:12:27.685Z"
    },
    {
        "id": 25,
        "name": "Ineffable",
        "logo": "https://cdn.eslgaming.com/play/eslgfx/gfx/logos/teams/13268000/13268880_medium.jpg",
        "division": "Diamond",
        "created_at": "2019-02-12T22:12:50.588Z",
        "updated_at": "2019-02-12T22:12:50.588Z"
    },
    {
        "id": 26,
        "name": "myNEC",
        "logo": "https://cdn.eslgaming.com/play/eslgfx/gfx/logos/teams/13273000/13273042_medium.jpg",
        "division": "Diamond",
        "created_at": "2019-02-12T22:13:16.179Z",
        "updated_at": "2019-02-12T22:13:16.179Z"
    },
    {
        "id": 27,
        "name": "Turtle eSport",
        "logo": "https://cdn.eslgaming.com/play/eslgfx/gfx/logos/teams/13267000/13267034_medium.jpg",
        "division": "Diamond",
        "created_at": "2019-02-12T22:13:35.981Z",
        "updated_at": "2019-02-12T22:13:35.981Z"
    },
    {
        "id": 28,
        "name": "Tera-Gaming e.V.",
        "logo": "https://cdn.eslgaming.com/play/eslgfx/gfx/logos/teams/13269000/13269468_medium.jpg*",
        "division": "Diamond",
        "created_at": "2019-02-12T22:13:52.287Z",
        "updated_at": "2019-02-12T22:13:52.287Z"
    },
    {
        "id": 29,
        "name": "Blue Flame eSports",
        "logo": "https://cdn.eslgaming.com/play/eslgfx/gfx/logos/teams/13269000/13269468_medium.jpg",
        "division": "Diamond",
        "created_at": "2019-02-12T22:14:09.087Z",
        "updated_at": "2019-02-12T22:14:09.087Z"
    },
    {
        "id": 30,
        "name": "AYB ESPORTS",
        "logo": "https://cdn.eslgaming.com/play/eslgfx/gfx/logos/teams/13273000/13273681_medium.jpg",
        "division": "Diamond",
        "created_at": "2019-02-12T22:14:23.033Z",
        "updated_at": "2019-02-12T22:14:23.033Z"
    },
    {
        "id": 31,
        "name": "MagnuS",
        "logo": "https://cdn.eslgaming.com/play/eslgfx/gfx/logos/teams/13270000/13270260_medium.jpg",
        "division": "Diamond",
        "created_at": "2019-02-12T22:14:34.946Z",
        "updated_at": "2019-02-12T22:14:34.946Z"
    },
    {
        "id": 32,
        "name": "#rauteKULT",
        "logo": "https://cdn.eslgaming.com/play/eslgfx/gfx/logos/teams/13268000/13268082_medium.jpg",
        "division": "Diamond",
        "created_at": "2019-02-12T22:15:29.368Z",
        "updated_at": "2019-02-12T22:15:29.368Z"
    }
]